-------------------------------------------------------------------------------
Test set: com.huffwebproj.app.RunnerTest
-------------------------------------------------------------------------------
Tests run: 2, Failures: 0, Errors: 0, Skipped: 0, Time elapsed: 1.743 sec
